Dplyr tricks
…
The `select_all/if/at` and `rename_all/if/at` functions will only modify the variable names, not the observations. If you want to change those, use the `mutate` variant!

```r
library(dplyr)
library(stringr)

storms %>% 
  select(name, year, status) %>% 
  mutate_all(tolower) %>% 
  mutate_all(~str_replace_all(., " ", "_"))
```

```
## # A tibble: 10,010 x 3
##    name  year  status             
##    <chr> <chr> <chr>              
##  1 amy   1975  tropical_depression
##  2 amy   1975  tropical_depression
##  3 amy   1975  tropical_depression
##  4 amy   1975  tropical_depression
##  5 amy   1975  tropical_depression
##  6 amy   1975  tropical_depression
##  7 amy   1975  tropical_depression
##  8 amy   1975  tropical_depression
##  9 amy   1975  tropical_storm     
## 10 amy   1975  tropical_storm     
## # ... with 10,000 more rows
```
…
You can add the amount of observations without summarising them yourself.  
And if you don't like the default column name `n`, just change it again with a `rename()` statement.

```r
library(dplyr)

mtcars %>% 
  select(-(drat:vs)) %>% 
  add_count(cyl) %>% rename(n_cyl = n) %>% 
  add_count(am) %>% rename(n_am = n)
```

```
## # A tibble: 32 x 9
##      mpg   cyl  disp    hp    am  gear  carb n_cyl  n_am
##    <dbl> <dbl> <dbl> <dbl> <dbl> <dbl> <dbl> <int> <int>
##  1  21       6  160    110     1     4     4     7    13
##  2  21       6  160    110     1     4     4     7    13
##  3  22.8     4  108     93     1     4     1    11    13
##  4  21.4     6  258    110     0     3     1     7    19
##  5  18.7     8  360    175     0     3     2    14    19
##  6  18.1     6  225    105     0     3     1     7    19
##  7  14.3     8  360    245     0     3     4    14    19
##  8  24.4     4  147.    62     0     4     2    11    19
##  9  22.8     4  141.    95     0     4     2    11    19
## 10  19.2     6  168.   123     0     4     4     7    19
## # ... with 22 more rows
```
…
`case_when()` can be a very powerful tool to make new discrete variables based on other columns.

```r
starwars %>%
  select(name, species, homeworld, birth_year, hair_color) %>%
  mutate(new_group = case_when(
      species == "Droid" ~ "Robot",
      homeworld == "Tatooine" & hair_color == "blond" ~ "Blond Tatooinian",
      homeworld == "Tatooine" ~ "Other Tatooinian",
      hair_color == "blond" ~ "Blond non-Tatooinian",
      TRUE ~ "Other Human"))
```

```
## # A tibble: 87 x 6
##    name               species homeworld birth_year hair_color    new_group
##    <chr>              <chr>   <chr>          <dbl> <chr>         <chr>    
##  1 Luke Skywalker     Human   Tatooine        19   blond         Blond Ta~
##  2 C-3PO              Droid   Tatooine       112   <NA>          Robot    
##  3 R2-D2              Droid   Naboo           33   <NA>          Robot    
##  4 Darth Vader        Human   Tatooine        41.9 none          Other Ta~
##  5 Leia Organa        Human   Alderaan        19   brown         Other Hu~
##  6 Owen Lars          Human   Tatooine        52   brown, grey   Other Ta~
##  7 Beru Whitesun lars Human   Tatooine        47   brown         Other Ta~
##  8 R5-D4              Droid   Tatooine        NA   <NA>          Robot    
##  9 Biggs Darklighter  Human   Tatooine        24   black         Other Ta~
## 10 Obi-Wan Kenobi     Human   Stewjon         57   auburn, white Other Hu~
## # ... with 77 more rows
```
…
Mutating with aggregate functions by default will take the average/sum/... of the entire column. Via adding `rowwise()` you can aggregate within an observatioin.

```r
iris %>% 
  select(contains("Length")) %>% 
  rowwise() %>% 
  mutate(avg_length = mean(c(Petal.Length, Sepal.Length)))
```

```
## Source: local data frame [150 x 3]
## Groups: <by row>
## 
## # A tibble: 150 x 3
##    Sepal.Length Petal.Length avg_length
##           <dbl>        <dbl>      <dbl>
##  1          5.1          1.4       3.25
##  2          4.9          1.4       3.15
##  3          4.7          1.3       3   
##  4          4.6          1.5       3.05
##  5          5            1.4       3.2 
##  6          5.4          1.7       3.55
##  7          4.6          1.4       3   
##  8          5            1.5       3.25
##  9          4.4          1.4       2.9 
## 10          4.9          1.5       3.2 
## # ... with 140 more rows
```
…
